﻿{
  "players": [
    {
      "playerName": "Gerard Piqué",
      "number": 3,
      "position": "Defender",
      "active": true,
      "imageUrl": "https://media-public.fcbarcelona.com/20157/0/document_thumbnail/20197/198/102/254/50226886/1.0-7/50226886.jpg?t:1500558237000"
    },
    {
      "playerName": "I. Rakitic",
      "number": 4,
      "position": "Midfielder",
      "active": true,
      "imageUrl": "https://media-public.fcbarcelona.com/20157/0/document_thumbnail/20197/210/102/254/50226898/1.0-7/50226898.jpg?t:1500558274000"
    },
    {
      "playerName": "A. Iniesta",
      "number": 8,
      "position": "Midfielder",
      "active": true,
      "imageUrl": "https://media-public.fcbarcelona.com/20157/0/document_thumbnail/20197/150/102/254/50226838/1.0-7/50226838.jpg?t:1500558204000"
    },
    {
      "playerName": "Luis Suárez",
      "number": 9,
      "position": "Forward",
      "active": true,
      "imageUrl": "https://media-public.fcbarcelona.com/20157/0/document_thumbnail/20197/84/103/254/50227028/1.0-7/50227028.jpg?t:1500558302000"
    },
    {
      "playerName": "Lionel Messi",
      "number": 10,
      "position": "Forward",
      "active": true,
      "imageUrl": "https://media-public.fcbarcelona.com/20157/0/document_thumbnail/20197/174/102/254/50226862/1.0-7/50226862.jpg?t:1500558216000"
    },
    {
      "playerName": "Mascherano",
      "number": 14,
      "position": "Defender",
      "active": true,
      "imageUrl": "https://media-public.fcbarcelona.com/20157/0/document_thumbnail/20197/168/102/254/50226856/1.0-7/50226856.jpg?t:1500558213000"
    },
    {
      "playerName": "Jordi Alba",
      "number": 18,
      "position": "Defender",
      "active": true,
      "imageUrl": "https://media-public.fcbarcelona.com/20157/0/document_thumbnail/20197/156/102/254/50226844/1.0-7/50226844.jpg?t:1500558208000"
    },
    {
      "playerName": "Sergi Roberto",
      "number": 20,
      "position": "Defender",
      "active": true,
      "imageUrl": "https://media-public.fcbarcelona.com/20157/0/document_thumbnail/20197/72/103/254/50227016/1.0-7/50227016.jpg?t:1500558298000"
    }
  ]
}